{
  "Welcome to Travel Explore": "Bienvenue dans Travel Explore",
  "Plan your trip quick and easy with us": "Planifiez votre voyage rapidement et facilement avec nous.",
  "Select Language":"Choisir la langue",
  "Let us know?": "Faites le nous savoir?",
  "French": "Français",
  "Spanish": "Español",
  "English": "English",
  "Please enter your Name to agree on wearing mask and sanitizing your hands for your travel?": "Veuillez entrer votre nom pour accepter de porter un masque et de vous désinfecter les mains pour votre voyage?",
  "Submit": "Soumettre",
  "Thank you for choosing Yoda's Travel": "Merci d'avoir choisi Yoda's Travel",
  "We need you to agree for the Covid-19 saftey measures": "Nous avons besoin que vous acceptiez les mesures de sécurité Covid-19",
  "Covid-19 Alert Consent": "Consentement aux alertes Covid-19",
  "Back": "Retour",
  "Information on safety during covid-19!!": "Informations sur la sécurité pendant covid-19 !!",
  "Our Services": "Nos services",
  "Services": "Services",
  "Train.": "Train.",
  "Bus.":"Autobus.",
  "Flight.": "Vol."
}